11/08/18 09:20

prob1 (12 points):
Score += 12

prob2 (12 points):
Score += 12

prob3 (13 points):
Score += 0

prob4 (13 points):
Score += 0

Total score: 24/50 = 48.0%


Comments:
	Great start!

-------------------------------------------------------------------------------

11/15/18 09:23

prob1 (12 points):
Score += 12

prob2 (12 points):
Score += 12

prob3 (13 points):
Score += 13

prob4 (13 points):
Score += 13

Total score: 50/50 = 100.0%

Excellent!

-------------------------------------------------------------------------------

